{
  "data": [
    {
      "category": {
        "mainCategory": {
          "id": "DEMOGRAPHIC",
          "localizedText": "Demographic",
          "text": "Demographic"
        }
      },
      "id": "11",
      "isAllowedInFilters": true,
      "isAllowedInQuotas": true,
      "localizedText": "What is your gender?",
      "name": "Gender",
      "options": [
        {
          "id": "1",
          "localizedText": "Male",
          "text": "Male"
        },
        {
          "id": "2",
          "localizedText": "Female",
          "text": "Female"
        }
      ],
      "state": "ACTIVE",
      "text": "What is your gender?",
      "tier": "Standard",
      "type": "LIST"
    },
    {
      "category": {
        "mainCategory": {
          "id": "DEMOGRAPHIC",
          "localizedText": "Demographic",
          "text": "Demographic"
        }
      },
      "format": "^(1[8]-1[9]|1[89]-[2-9][0-9]|[2-9][0-9]-[2-9][0-9])$",
      "id": "13",
      "isAllowedInFilters": true,
      "isAllowedInQuotas": true,
      "localizedText": "No question; generated by the database",
      "name": "Age",
      "state": "ACTIVE",
      "text": "No question; generated by the database",
      "tier": "Standard",
      "type": "INTEGER_RANGE"
    },
    {
      "category": {
        "mainCategory": {
          "id": "DEMOGRAPHIC",
          "localizedText": "Demographic",
          "text": "Demographic"
        }
      },
      "format": "^\\d{10}$",
      "id": "1500",
      "isAllowedInFilters": true,
      "isAllowedInQuotas": false,
      "localizedText": "Respondent Identifier",
      "name": "Respondent Identifier",
      "state": "ACTIVE",
      "text": "Respondent Identifier",
      "tier": "Standard",
      "type": "INTEGER"
    }
  ],
  "meta": {
    "links": {
      "first": "https://api.researchnow.com/sample/v1/attributes/US/en?offset=0",
      "last": "https://api.researchnow.com/sample/v1/attributes/US/en?offset=173",
      "next": "https://api.researchnow.com/sample/v1/attributes/US/en?offset=10",
      "prev": "https://api.researchnow.com/sample/v1/attributes/US/en?offset=0",
      "self": "https://api.researchnow.com/sample/v1/attributes/US/en"
    },
    "pageSize": 10,
    "total": 183
  },
  "status": {
    "errors": [],
    "message": "success"
  }
}
